{
  "layout_cards": [
    {
      "id": 3,
      "x": -0.003,
      "y": 1.026,
      "layer": 6,
      "closed_by": []
    },
    {
      "id": 4,
      "x": -0.002,
      "y": -0.597,
      "layer": 6,
      "closed_by": []
    },
    {
      "id": 6,
      "x": -1.506,
      "y": 1.039,
      "layer": 2,
      "closed_by": [
        15
      ]
    },
    {
      "id": 7,
      "x": -1.246,
      "y": -0.252,
      "layer": 1,
      "closed_by": [
        9,
        10,
        12,
        13
      ]
    },
    {
      "id": 8,
      "x": -1.246,
      "y": 0.708,
      "layer": 1,
      "closed_by": [
        6,
        9,
        10,
        11
      ]
    },
    {
      "id": 9,
      "x": -0.976,
      "y": 0.23,
      "layer": 2,
      "closed_by": [
        14,
        15
      ]
    },
    {
      "id": 10,
      "x": -1.508,
      "y": 0.229,
      "layer": 2,
      "closed_by": [
        14,
        15
      ]
    },
    {
      "id": 11,
      "x": -0.972,
      "y": 1.042,
      "layer": 2,
      "closed_by": [
        15
      ]
    },
    {
      "id": 12,
      "x": -0.975,
      "y": -0.578,
      "layer": 2,
      "closed_by": [
        14
      ]
    },
    {
      "id": 13,
      "x": -1.506,
      "y": -0.578,
      "layer": 2,
      "closed_by": [
        14
      ]
    },
    {
      "id": 14,
      "x": -1.248,
      "y": -0.184,
      "layer": 3,
      "closed_by": [
        16
      ]
    },
    {
      "id": 15,
      "x": -1.248,
      "y": 0.634,
      "layer": 3,
      "closed_by": [
        16
      ]
    },
    {
      "id": 16,
      "x": -1.248,
      "y": 0.231,
      "layer": 4,
      "closed_by": [
        17,
        18,
        21,
        22
      ]
    },
    {
      "id": 17,
      "x": -0.972,
      "y": 0.637,
      "layer": 5,
      "closed_by": [
        34
      ]
    },
    {
      "id": 18,
      "x": -1.508,
      "y": 0.634,
      "layer": 5,
      "closed_by": [
        34
      ]
    },
    {
      "id": 19,
      "x": -0.305,
      "y": -0.193,
      "layer": 5,
      "closed_by": [
        4,
        35
      ]
    },
    {
      "id": 20,
      "x": 0.305,
      "y": -0.187,
      "layer": 5,
      "closed_by": [
        4,
        35
      ]
    },
    {
      "id": 21,
      "x": -0.975,
      "y": -0.18,
      "layer": 5,
      "closed_by": [
        34
      ]
    },
    {
      "id": 22,
      "x": -1.506,
      "y": -0.187,
      "layer": 5,
      "closed_by": [
        34
      ]
    },
    {
      "id": 23,
      "x": -0.305,
      "y": 0.638,
      "layer": 5,
      "closed_by": [
        3,
        35
      ]
    },
    {
      "id": 24,
      "x": -0.003,
      "y": 1.019,
      "layer": 1,
      "closed_by": [
        25,
        30
      ]
    },
    {
      "id": 25,
      "x": 0.305,
      "y": 0.939,
      "layer": 2,
      "closed_by": [
        28
      ]
    },
    {
      "id": 26,
      "x": 0.305,
      "y": 0.638,
      "layer": 5,
      "closed_by": [
        3,
        35
      ]
    },
    {
      "id": 27,
      "x": -0.002,
      "y": 0.216,
      "layer": 4,
      "closed_by": [
        19,
        20,
        23,
        26
      ]
    },
    {
      "id": 28,
      "x": -0.002,
      "y": 0.777,
      "layer": 3,
      "closed_by": [
        27
      ]
    },
    {
      "id": 29,
      "y": -0.34,
      "layer": 3,
      "closed_by": [
        27
      ]
    },
    {
      "id": 30,
      "x": -0.305,
      "y": 0.939,
      "layer": 2,
      "closed_by": [
        28
      ]
    },
    {
      "id": 31,
      "x": 0.3,
      "y": -0.499,
      "layer": 2,
      "closed_by": [
        29
      ]
    },
    {
      "id": 32,
      "x": -0.305,
      "y": -0.497,
      "layer": 2,
      "closed_by": [
        29
      ]
    },
    {
      "id": 33,
      "x": -0.004,
      "y": -0.574,
      "layer": 1,
      "closed_by": [
        31,
        32
      ]
    },
    {
      "id": 34,
      "x": -1.246,
      "y": 0.231,
      "layer": 6,
      "closed_by": []
    },
    {
      "id": 35,
      "x": 0.001,
      "y": 0.209,
      "layer": 6,
      "closed_by": []
    },
    {
      "id": 36,
      "x": 1.23,
      "y": 0.224,
      "layer": 6,
      "closed_by": []
    },
    {
      "id": 37,
      "x": 1.23,
      "y": -0.192,
      "layer": 3,
      "closed_by": [
        41
      ]
    },
    {
      "id": 38,
      "x": 0.972,
      "y": -0.587,
      "layer": 2,
      "closed_by": [
        37,
        40
      ]
    },
    {
      "id": 39,
      "x": 1.233,
      "y": -0.261,
      "layer": 1,
      "closed_by": [
        38,
        42,
        48,
        49
      ]
    },
    {
      "id": 40,
      "x": 0.972,
      "y": -0.194,
      "layer": 5,
      "closed_by": [
        36
      ]
    },
    {
      "id": 41,
      "x": 1.23,
      "y": 0.224,
      "layer": 4,
      "closed_by": [
        40,
        44,
        47,
        51
      ]
    },
    {
      "id": 42,
      "x": 0.972,
      "y": 0.221,
      "layer": 2,
      "closed_by": [
        37,
        46
      ]
    },
    {
      "id": 43,
      "x": 0.972,
      "y": 1.031,
      "layer": 2,
      "closed_by": [
        46
      ]
    },
    {
      "id": 44,
      "x": 0.972,
      "y": 0.625,
      "layer": 5,
      "closed_by": [
        36
      ]
    },
    {
      "id": 45,
      "x": 1.233,
      "y": 0.699,
      "layer": 1,
      "closed_by": [
        42,
        43,
        49,
        50
      ]
    },
    {
      "id": 46,
      "x": 1.23,
      "y": 0.625,
      "layer": 3,
      "closed_by": [
        41
      ]
    },
    {
      "id": 47,
      "x": 1.503,
      "y": -0.187,
      "layer": 5,
      "closed_by": [
        36
      ]
    },
    {
      "id": 48,
      "x": 1.503,
      "y": -0.587,
      "layer": 2,
      "closed_by": [
        37,
        47
      ]
    },
    {
      "id": 49,
      "x": 1.503,
      "y": 0.222,
      "layer": 2,
      "closed_by": [
        37,
        46
      ]
    },
    {
      "id": 50,
      "x": 1.508,
      "y": 1.034,
      "layer": 2,
      "closed_by": [
        46,
        51
      ]
    },
    {
      "id": 51,
      "x": 1.506,
      "y": 0.629,
      "layer": 5,
      "closed_by": [
        36
      ]
    }
  ],
  "cards_in_layout_amount": 48,
  "cards_in_deck_amount": 36,
  "stars_statistic": {
    "star1": 2.1,
    "star2": 32.4,
    "star3": 64.6
  }
}