{
  "layout_cards": [
    {
      "id": 9,
      "x": 1.133,
      "y": 0.223,
      "layer": 5,
      "closed_by": []
    },
    {
      "id": 10,
      "x": -1.235,
      "y": -0.261,
      "layer": 4,
      "closed_by": [
        17
      ]
    },
    {
      "id": 11,
      "x": -1.24,
      "y": 0.699,
      "layer": 4,
      "closed_by": [
        17
      ]
    },
    {
      "id": 12,
      "x": 1.24,
      "y": 0.699,
      "layer": 4,
      "closed_by": [
        9
      ]
    },
    {
      "id": 13,
      "x": -1.582,
      "y": 0.222,
      "layer": 3,
      "closed_by": [
        10,
        11
      ]
    },
    {
      "id": 14,
      "x": 1.582,
      "y": 0.216,
      "layer": 3,
      "closed_by": [
        12,
        16
      ]
    },
    {
      "id": 15,
      "x": -1.503,
      "y": 0.699,
      "layer": 2,
      "closed_by": [
        13
      ]
    },
    {
      "id": 16,
      "x": 1.245,
      "y": -0.259,
      "layer": 4,
      "closed_by": [
        9
      ]
    },
    {
      "id": 17,
      "x": -1.133,
      "y": 0.221,
      "layer": 5,
      "closed_by": []
    },
    {
      "id": 18,
      "x": -1.503,
      "y": -0.256,
      "layer": 2,
      "closed_by": [
        13
      ]
    },
    {
      "id": 19,
      "x": 1.503,
      "y": 0.699,
      "layer": 2,
      "closed_by": [
        14
      ]
    },
    {
      "id": 20,
      "x": 1.503,
      "y": -0.259,
      "layer": 2,
      "closed_by": [
        14
      ]
    },
    {
      "id": 21,
      "x": -1.182,
      "y": 0.777,
      "layer": 1,
      "closed_by": [
        15,
        25
      ]
    },
    {
      "id": 22,
      "x": 1.184,
      "y": -0.34,
      "layer": 1,
      "closed_by": [
        20,
        26
      ]
    },
    {
      "id": 23,
      "x": 1.187,
      "y": 0.782,
      "layer": 1,
      "closed_by": [
        19,
        27
      ]
    },
    {
      "id": 24,
      "x": -0.944,
      "y": -0.261,
      "layer": 2,
      "closed_by": [
        36
      ]
    },
    {
      "id": 25,
      "x": -0.944,
      "y": 0.697,
      "layer": 2,
      "closed_by": [
        28
      ]
    },
    {
      "id": 26,
      "x": 0.943,
      "y": -0.259,
      "layer": 2,
      "closed_by": [
        30
      ]
    },
    {
      "id": 27,
      "x": 0.944,
      "y": 0.702,
      "layer": 2,
      "closed_by": [
        29
      ]
    },
    {
      "id": 28,
      "x": -0.944,
      "y": 0.935,
      "layer": 3,
      "closed_by": [
        11,
        39
      ]
    },
    {
      "id": 29,
      "x": 0.944,
      "y": 0.938,
      "layer": 3,
      "closed_by": [
        12,
        40
      ]
    },
    {
      "id": 30,
      "x": 0.944,
      "y": -0.5,
      "layer": 3,
      "closed_by": [
        16,
        38
      ]
    },
    {
      "id": 31,
      "x": -0.384,
      "y": 0.694,
      "layer": 5,
      "closed_by": []
    },
    {
      "id": 32,
      "x": -0.384,
      "y": -0.259,
      "layer": 5,
      "closed_by": []
    },
    {
      "id": 33,
      "x": 0.388,
      "y": -0.259,
      "layer": 5,
      "closed_by": []
    },
    {
      "id": 34,
      "x": 0.388,
      "y": 0.698,
      "layer": 5,
      "closed_by": []
    },
    {
      "id": 35,
      "x": -0.544,
      "y": -0.5,
      "layer": 4,
      "closed_by": [
        32
      ]
    },
    {
      "id": 36,
      "x": -0.944,
      "y": -0.5,
      "layer": 3,
      "closed_by": [
        10,
        35
      ]
    },
    {
      "id": 37,
      "x": -1.184,
      "y": -0.34,
      "layer": 1,
      "closed_by": [
        18,
        24
      ]
    },
    {
      "id": 38,
      "x": 0.541,
      "y": -0.497,
      "layer": 4,
      "closed_by": [
        33
      ]
    },
    {
      "id": 39,
      "x": -0.545,
      "y": 0.938,
      "layer": 4,
      "closed_by": [
        31
      ]
    },
    {
      "id": 40,
      "x": 0.546,
      "y": 0.938,
      "layer": 4,
      "closed_by": [
        34
      ]
    },
    {
      "id": 41,
      "y": -0.493,
      "layer": 4,
      "closed_by": [
        32,
        33
      ]
    },
    {
      "id": 42,
      "x": -0.004,
      "y": 0.939,
      "layer": 4,
      "closed_by": [
        31,
        34
      ]
    },
    {
      "id": 43,
      "x": -0.303,
      "y": -0.414,
      "layer": 3,
      "closed_by": [
        35,
        41
      ]
    },
    {
      "id": 44,
      "x": 0.305,
      "y": -0.414,
      "layer": 3,
      "closed_by": [
        38,
        41
      ]
    },
    {
      "id": 45,
      "x": 0.307,
      "y": 0.856,
      "layer": 3,
      "closed_by": [
        40,
        42
      ]
    },
    {
      "id": 46,
      "x": -0.303,
      "y": 0.216,
      "layer": 2,
      "closed_by": [
        43,
        50
      ]
    },
    {
      "id": 47,
      "x": 0.305,
      "y": 0.216,
      "layer": 2,
      "closed_by": [
        44,
        45
      ]
    },
    {
      "id": 48,
      "y": 0.777,
      "layer": 1,
      "closed_by": [
        46,
        47
      ]
    },
    {
      "id": 49,
      "x": 0.003,
      "y": -0.337,
      "layer": 1,
      "closed_by": [
        46,
        47
      ]
    },
    {
      "id": 50,
      "x": -0.305,
      "y": 0.856,
      "layer": 3,
      "closed_by": [
        39,
        42
      ]
    }
  ],
  "cards_in_layout_amount": 42,
  "cards_in_deck_amount": 30,
  "stars_statistic": {
    "star1": 2.6,
    "star2": 44.7,
    "star3": 52.0
  }
}