{
  "layout_cards": [
    {
      "id": 12,
      "x": 0.307,
      "y": -0.186,
      "layer": 4,
      "closed_by": []
    },
    {
      "id": 13,
      "x": -0.303,
      "y": -0.187,
      "layer": 4,
      "closed_by": []
    },
    {
      "id": 14,
      "x": 0.31,
      "y": 0.638,
      "layer": 4,
      "closed_by": []
    },
    {
      "id": 15,
      "x": -0.31,
      "y": 0.638,
      "layer": 4,
      "closed_by": []
    },
    {
      "id": 18,
      "x": 0.896,
      "y": -0.184,
      "layer": 4,
      "closed_by": []
    },
    {
      "id": 19,
      "x": -0.892,
      "y": -0.187,
      "layer": 4,
      "closed_by": []
    },
    {
      "id": 20,
      "x": 0.893,
      "y": 0.638,
      "layer": 4,
      "closed_by": []
    },
    {
      "id": 21,
      "x": -0.001,
      "y": -0.416,
      "layer": 3,
      "closed_by": [
        12,
        13
      ]
    },
    {
      "id": 22,
      "x": -0.569,
      "y": -0.418,
      "layer": 3,
      "closed_by": [
        13,
        19
      ]
    },
    {
      "id": 23,
      "x": 0.573,
      "y": -0.414,
      "layer": 3,
      "closed_by": [
        12,
        18
      ]
    },
    {
      "id": 24,
      "x": 1.128,
      "y": -0.418,
      "layer": 3,
      "closed_by": [
        18
      ]
    },
    {
      "id": 25,
      "x": -1.136,
      "y": -0.414,
      "layer": 3,
      "closed_by": [
        19
      ]
    },
    {
      "id": 26,
      "x": 1.108,
      "y": 0.86,
      "layer": 3,
      "closed_by": [
        20
      ]
    },
    {
      "id": 27,
      "x": 0.549,
      "y": 0.861,
      "layer": 3,
      "closed_by": [
        14,
        20
      ]
    },
    {
      "id": 28,
      "x": -0.569,
      "y": 0.861,
      "layer": 3,
      "closed_by": [
        15,
        37
      ]
    },
    {
      "id": 29,
      "x": -1.131,
      "y": 0.861,
      "layer": 3,
      "closed_by": [
        37
      ]
    },
    {
      "id": 30,
      "x": 1.45,
      "y": -0.256,
      "layer": 2,
      "closed_by": [
        24
      ]
    },
    {
      "id": 31,
      "x": 0.893,
      "y": -0.256,
      "layer": 2,
      "closed_by": [
        23,
        24
      ]
    },
    {
      "id": 32,
      "x": 0.305,
      "y": -0.256,
      "layer": 2,
      "closed_by": [
        21,
        23
      ]
    },
    {
      "id": 33,
      "x": -0.305,
      "y": -0.252,
      "layer": 2,
      "closed_by": [
        21,
        22
      ]
    },
    {
      "id": 34,
      "x": -0.892,
      "y": -0.252,
      "layer": 2,
      "closed_by": [
        22,
        25
      ]
    },
    {
      "id": 35,
      "x": -1.452,
      "y": -0.259,
      "layer": 2,
      "closed_by": [
        25
      ]
    },
    {
      "id": 36,
      "x": -0.003,
      "y": 0.861,
      "layer": 3,
      "closed_by": [
        14,
        15
      ]
    },
    {
      "id": 37,
      "x": -0.893,
      "y": 0.638,
      "layer": 4,
      "closed_by": []
    },
    {
      "id": 38,
      "x": 1.452,
      "y": 0.699,
      "layer": 2,
      "closed_by": [
        26
      ]
    },
    {
      "id": 39,
      "x": 0.893,
      "y": 0.699,
      "layer": 2,
      "closed_by": [
        26,
        27
      ]
    },
    {
      "id": 40,
      "x": 0.307,
      "y": 0.699,
      "layer": 2,
      "closed_by": [
        27,
        36
      ]
    },
    {
      "id": 41,
      "x": -0.31,
      "y": 0.703,
      "layer": 2,
      "closed_by": [
        28,
        36
      ]
    },
    {
      "id": 42,
      "x": -0.893,
      "y": 0.699,
      "layer": 2,
      "closed_by": [
        28,
        29
      ]
    },
    {
      "id": 43,
      "x": -1.447,
      "y": 0.699,
      "layer": 2,
      "closed_by": [
        29
      ]
    },
    {
      "id": 44,
      "x": -1.664,
      "y": 0.221,
      "layer": 1,
      "closed_by": [
        35,
        43
      ]
    },
    {
      "id": 45,
      "x": -1.128,
      "y": 0.223,
      "layer": 1,
      "closed_by": [
        34,
        35,
        42,
        43
      ]
    },
    {
      "id": 46,
      "x": 1.133,
      "y": 0.221,
      "layer": 1,
      "closed_by": [
        30,
        31,
        38,
        39
      ]
    },
    {
      "id": 47,
      "x": -0.569,
      "y": 0.222,
      "layer": 1,
      "closed_by": [
        33,
        34,
        41,
        42
      ]
    },
    {
      "id": 48,
      "x": 0.572,
      "y": 0.223,
      "layer": 1,
      "closed_by": [
        31,
        32,
        39,
        40
      ]
    },
    {
      "id": 49,
      "x": 0.001,
      "y": 0.221,
      "layer": 1,
      "closed_by": [
        32,
        33,
        40,
        41
      ]
    },
    {
      "id": 50,
      "x": 1.666,
      "y": 0.216,
      "layer": 1,
      "closed_by": [
        30,
        38
      ]
    }
  ],
  "cards_in_layout_amount": 37,
  "cards_in_deck_amount": 28,
  "stars_statistic": {
    "star1": 6.5,
    "star2": 66.2,
    "star3": 26.6
  }
}